^C:\USERS\500166921\SOURCE\REPOS\EXCERSIZE3\EXCERSIZE3\DEBUG\MAIN.OBJ
/OUT:"C:\USERS\500166921\SOURCE\REPOS\EXCERSIZE3\DEBUG\EXCERSIZE3.EXE" /INCREMENTAL /NOLOGO KERNEL32.LIB USER32.LIB GDI32.LIB WINSPOOL.LIB COMDLG32.LIB ADVAPI32.LIB SHELL32.LIB OLE32.LIB OLEAUT32.LIB UUID.LIB ODBC32.LIB ODBCCP32.LIB /MANIFEST /MANIFESTUAC:"level='asInvoker' uiAccess='false'" /manifest:embed /DEBUG:FASTLINK /PDB:"C:\USERS\500166921\SOURCE\REPOS\EXCERSIZE3\DEBUG\EXCERSIZE3.PDB" /TLBID:1 /DYNAMICBASE /NXCOMPAT /IMPLIB:"C:\USERS\500166921\SOURCE\REPOS\EXCERSIZE3\DEBUG\EXCERSIZE3.LIB" /MACHINE:X86 DEBUG\MAIN.OBJ
^C:\USERS\MAXWE\DESKTOP\NEW FOLDER\EXCERSIZE3\EXCERSIZE3\DEBUG\MAIN.OBJ
/OUT:"C:\USERS\MAXWE\DESKTOP\NEW FOLDER\EXCERSIZE3\DEBUG\EXCERSIZE3.EXE" /INCREMENTAL /NOLOGO KERNEL32.LIB USER32.LIB GDI32.LIB WINSPOOL.LIB COMDLG32.LIB ADVAPI32.LIB SHELL32.LIB OLE32.LIB OLEAUT32.LIB UUID.LIB ODBC32.LIB ODBCCP32.LIB /MANIFEST /MANIFESTUAC:"level='asInvoker' uiAccess='false'" /manifest:embed /DEBUG:FASTLINK /PDB:"C:\USERS\MAXWE\DESKTOP\NEW FOLDER\EXCERSIZE3\DEBUG\EXCERSIZE3.PDB" /TLBID:1 /DYNAMICBASE /NXCOMPAT /IMPLIB:"C:\USERS\MAXWE\DESKTOP\NEW FOLDER\EXCERSIZE3\DEBUG\EXCERSIZE3.LIB" /MACHINE:X86 DEBUG\MAIN.OBJ
